What’s so special about formulas in R – Joshua Marie
…
    tbl(new_data)
}

iris |> 
    transform_data(
        petal_ratio ~ Petal.Length / Petal.Width, 
        pr_2 ~ petal_ratio^2, 
        Species ~ as.integer(Species)
    )

# A tibble: 150 × 7
   Sepal.Length Sepal.Width Petal.Length Petal.Width Species petal_ratio  pr_2
          <dbl>       <dbl>        <dbl>       <dbl>   <int>       <dbl> <dbl>
 1          5.1         3.5          1.4         0.2       1        7     49  
 2          4.9         3            1.4         0.2       1        7     49  
 3          4.7         3.2          1.3         0.2       1        6.5   42.2
 4          4.6         3.1          1.5         0.2       1        7.5   56.2
 5          5           3.6          1.4         0.2       1        7     49  
 6          5.4         3.9          1.7         0.4       1        4.25  18.1
 7          4.6         3.4          1.4         0.3       1        4.67  21.8
 8          5           3.4          1.5         0.2       1        7.5   56.2
 9          4.4         2.9          1.4         0.2       1        7     49  
10          4.9         3.1          1.5         0.1       1       15    225  
# ℹ 140 more rows
…
