A ‘careful’ and ‘small’ guide to data science with ‘tidyverse’ – Joshua Marie
…
        ), 
        `Joining Date` = parse_date_time(
            `Joining Date`, c(
                "%B %d, %Y",
                "%Y/%m/%d", 
                "%m-%d-%Y",
                "%Y.%m.%d"
            )
        ) |> as_date(), 
        Salary = numberize::numberize(Salary),
        Name = capitalize(Name),
        Age = numberize::numberize(Age)
    )

# A tibble: 1,000 × 10
   Name      Age Salary Gender Department Position  `Joining Date`
   <chr>   <dbl>  <dbl> <chr>  <chr>      <chr>     <date>        
 1 Grace      25  50000 Male   HR         Manager   2018-04-05    
 2 David      NA  65000 Female Finance    Director  2020-02-20    
 3 Hannah     35  60000 Female Sales      Director  2020-01-15    
 4 Eve        NA  50000 Female IT         Manager   2018-04-05    
 5 Grace      NA     NA Female Finance    Manager   2020-01-15    
 6 Jack       NA  65000 Other  Marketing  Director  2019-03-25    
 7 Charlie    NA  50000 Male   Marketing  Clerk     2019-12-01    
 8 Grace      40  50000 Other  HR         Director  2019-03-25    
 9 Hannah     40  60000 Female Marketing  Manager   2020-01-15    
10 Eve        30     NA Other  Finance    Assistant 2020-02-20    
# ℹ 990 more rows
# ℹ 3 more variables: `Performance Score` <chr>, Email <chr>,
#   `Phone Number` <chr>
…
